  1.5625E-01  1.0000E+00  8.8683E-15  2.5000E+00  1.0000E+00  2.2251-308  2.2251-308  0.0000E+00  0.0000E+00  0.0000E+00  3.0000E+00  3.0000E+00
  2.1875E-01  1.0000E+00  7.2076E-13  2.5000E+00  1.0000E+00  2.2251-308  2.2251-308  0.0000E+00  0.0000E+00  0.0000E+00  3.0000E+00  3.0000E+00
  2.8125E-01  1.0000E+00  1.7561E-11  2.5000E+00  1.0000E+00  2.2251-308  2.2251-308  0.0000E+00  0.0000E+00  0.0000E+00  3.0000E+00  3.0000E+00
  3.4375E-01  1.0000E+00  1.0307E-09  2.5000E+00  1.0000E+00  2.2251-308  2.2251-308  0.0000E+00  0.0000E+00  0.0000E+00  3.0000E+00  3.0000E+00
  3.9062E-01  1.0000E+00  2.8765E-08  2.5000E+00  1.0000E+00  2.2251-308  2.2251-308  0.0000E+00  0.0000E+00  0.0000E+00  3.0000E+00  3.0000E+00
  4.1406E-01  1.0000E+00  1.8718E-07  2.5000E+00  1.0000E+00  2.2251-308  2.2251-308  0.0000E+00  0.0000E+00  0.0000E+00  3.0000E+00  3.0000E+00
  4.2969E-01  1.0000E+00  2.5246E-07  2.5000E+00  1.0000E+00  2.2251-308  2.2251-308  0.0000E+00  0.0000E+00  0.0000E+00  3.0000E+00  3.0000E+00
  4.4141E-01  1.0000E+00  2.4566E-06  2.5000E+00  1.0000E+00  2.2251-308  2.2251-308  0.0000E+00  0.0000E+00  0.0000E+00  3.0000E+00  3.0000E+00
  4.4922E-01  9.9999E-01  4.9431E-06  2.5000E+00  9.9999E-01  2.2251-308  2.2251-308  0.0000E+00  0.0000E+00  0.0000E+00  3.0000E+00  3.0000E+00
  4.5508E-01  9.9998E-01  3.4209E-05  2.4999E+00  9.9998E-01  2.2251-308  2.2251-308  0.0000E+00  0.0000E+00  0.0000E+00  3.0000E+00  3.0000E+00
  4.5898E-01  9.9992E-01  8.8811E-05  2.4997E+00  9.9988E-01  2.2251-308  2.2251-308  0.0000E+00  0.0000E+00  0.0000E+00  3.0000E+00  3.0000E+00
  4.6191E-01  9.9977E-01  2.8393E-04  2.4992E+00  9.9968E-01  2.2251-308  2.2251-308  0.0000E+00  0.0000E+00  0.0000E+00  3.0000E+00  3.0000E+00
  4.6338E-01  9.9967E-01  5.7840E-04  2.4987E+00  9.9949E-01  2.2251-308  2.2251-308  0.0000E+00  0.0000E+00  0.0000E+00  3.0000E+00  3.0000E+00
  4.6436E-01  9.9920E-01  1.0037E-03  2.4971E+00  9.9887E-01  2.2251-308  2.2251-308  0.0000E+00  0.0000E+00  0.0000E+00  3.0000E+00  3.0000E+00
  4.6533E-01  9.9826E-01  2.1249E-03  2.4940E+00  9.9766E-01  2.2251-308  2.2251-308  0.0000E+00  0.0000E+00  0.0000E+00  3.0000E+00  3.0000E+00
  4.6631E-01  9.9657E-01  4.2530E-03  2.4880E+00  9.9530E-01  2.2251-308  2.2251-308  0.0000E+00  0.0000E+00  0.0000E+00  3.0000E+00  3.0000E+00
  4.6729E-01  9.9347E-01  7.9493E-03  2.4772E+00  9.9106E-01  2.2251-308  2.2251-308  0.0000E+00  0.0000E+00  0.0000E+00  3.0000E+00  3.0000E+00
  4.6826E-01  9.8862E-01  1.3916E-02  2.4603E+00  9.8436E-01  2.2251-308  2.2251-308  0.0000E+00  0.0000E+00  0.0000E+00  3.0000E+00  3.0000E+00
  4.6924E-01  9.8122E-01  2.2842E-02  2.4349E+00  9.7428E-01  2.2251-308  2.2251-308  0.0000E+00  0.0000E+00  0.0000E+00  3.0000E+00  3.0000E+00
  4.7021E-01  9.7103E-01  3.5352E-02  2.3999E+00  9.6026E-01  2.2251-308  2.2251-308  0.0000E+00  0.0000E+00  0.0000E+00  3.0000E+00  3.0000E+00
  4.7119E-01  9.5768E-01  5.1676E-02  2.3546E+00  9.4202E-01  2.2251-308  2.2251-308  0.0000E+00  0.0000E+00  0.0000E+00  3.0000E+00  3.0000E+00
  4.7217E-01  9.4147E-01  7.1905E-02  2.3002E+00  9.1991E-01  2.2251-308  2.2251-308  0.0000E+00  0.0000E+00  0.0000E+00  3.0000E+00  3.0000E+00
  4.7314E-01  9.2264E-01  9.5339E-02  2.2380E+00  8.9445E-01  2.2251-308  2.2251-308  0.0000E+00  0.0000E+00  0.0000E+00  3.0000E+00  3.0000E+00
  4.7412E-01  9.0212E-01  1.2164E-01  2.1713E+00  8.6684E-01  2.2251-308  2.2251-308  0.0000E+00  0.0000E+00  0.0000E+00  3.0000E+00  3.0000E+00
  4.7510E-01  8.8041E-01  1.4973E-01  2.1020E+00  8.3784E-01  2.2251-308  2.2251-308  0.0000E+00  0.0000E+00  0.0000E+00  3.0000E+00  3.0000E+00
  4.7607E-01  8.5814E-01  1.7914E-01  2.0323E+00  8.0841E-01  2.2251-308  2.2251-308  0.0000E+00  0.0000E+00  0.0000E+00  3.0000E+00  3.0000E+00
  4.7705E-01  8.3582E-01  2.0932E-01  1.9638E+00  7.7917E-01  2.2251-308  2.2251-308  0.0000E+00  0.0000E+00  0.0000E+00  3.0000E+00  3.0000E+00
  4.7803E-01  8.1348E-01  2.4004E-01  1.8968E+00  7.5029E-01  2.2251-308  2.2251-308  0.0000E+00  0.0000E+00  0.0000E+00  3.0000E+00  3.0000E+00
  4.7900E-01  7.9145E-01  2.7104E-01  1.8318E+00  7.2202E-01  2.2251-308  2.2251-308  0.0000E+00  0.0000E+00  0.0000E+00  3.0000E+00  3.0000E+00
  4.7998E-01  7.6973E-01  3.0230E-01  1.7691E+00  6.9446E-01  2.2251-308  2.2251-308  0.0000E+00  0.0000E+00  0.0000E+00  3.0000E+00  3.0000E+00
  4.8096E-01  7.4838E-01  3.3373E-01  1.7087E+00  6.6768E-01  2.2251-308  2.2251-308  0.0000E+00  0.0000E+00  0.0000E+00  3.0000E+00  3.0000E+00
  4.8193E-01  7.2742E-01  3.6528E-01  1.6506E+00  6.4169E-01  2.2251-308  2.2251-308  0.0000E+00  0.0000E+00  0.0000E+00  3.0000E+00  3.0000E+00
  4.8291E-01  7.0687E-01  3.9690E-01  1.5948E+00  6.1648E-01  2.2251-308  2.2251-308  0.0000E+00  0.0000E+00  0.0000E+00  3.0000E+00  3.0000E+00
  4.8389E-01  6.8673E-01  4.2859E-01  1.5413E+00  5.9207E-01  2.2251-308  2.2251-308  0.0000E+00  0.0000E+00  0.0000E+00  3.0000E+00  3.0000E+00
  4.8486E-01  6.6703E-01  4.6036E-01  1.4900E+00  5.6846E-01  2.2251-308  2.2251-308  0.0000E+00  0.0000E+00  0.0000E+00  3.0000E+00  3.0000E+00
  4.8584E-01  6.4776E-01  4.9219E-01  1.4407E+00  5.4563E-01  2.2251-308  2.2251-308  0.0000E+00  0.0000E+00  0.0000E+00  3.0000E+00  3.0000E+00
  4.8682E-01  6.2891E-01  5.2407E-01  1.3935E+00  5.2355E-01  2.2251-308  2.2251-308  0.0000E+00  0.0000E+00  0.0000E+00  3.0000E+00  3.0000E+00
  4.8779E-01  6.1046E-01  5.5596E-01  1.3482E+00  5.0221E-01  2.2251-308  2.2251-308  0.0000E+00  0.0000E+00  0.0000E+00  3.0000E+00  3.0000E+00
  4.8877E-01  5.9243E-01  5.8788E-01  1.3048E+00  4.8160E-01  2.2251-308  2.2251-308  0.0000E+00  0.0000E+00  0.0000E+00  3.0000E+00  3.0000E+00
  4.8975E-01  5.7483E-01  6.1984E-01  1.2632E+00  4.6171E-01  2.2251-308  2.2251-308  0.0000E+00  0.0000E+00  0.0000E+00  3.0000E+00  3.0000E+00
  4.9072E-01  5.5764E-01  6.5181E-01  1.2233E+00  4.4253E-01  2.2251-308  2.2251-308  0.0000E+00  0.0000E+00  0.0000E+00  3.0000E+00  3.0000E+00
  4.9170E-01  5.4086E-01  6.8378E-01  1.1851E+00  4.2403E-01  2.2251-308  2.2251-308  0.0000E+00  0.0000E+00  0.0000E+00  3.0000E+00  3.0000E+00
  4.9268E-01  5.2449E-01  7.1571E-01  1.1485E+00  4.0620E-01  2.2251-308  2.2251-308  0.0000E+00  0.0000E+00  0.0000E+00  3.0000E+00  3.0000E+00
  4.9365E-01  5.0854E-01  7.4759E-01  1.1134E+00  3.8904E-01  2.2251-308  2.2251-308  0.0000E+00  0.0000E+00  0.0000E+00  3.0000E+00  3.0000E+00
  4.9463E-01  4.9304E-01  7.7939E-01  1.0799E+00  3.7256E-01  2.2251-308  2.2251-308  0.0000E+00  0.0000E+00  0.0000E+00  3.0000E+00  3.0000E+00
  4.9561E-01  4.7799E-01  8.1106E-01  1.0479E+00  3.5676E-01  2.2251-308  2.2251-308  0.0000E+00  0.0000E+00  0.0000E+00  3.0000E+00  3.0000E+00
  4.9658E-01  4.6342E-01  8.4250E-01  1.0175E+00  3.4165E-01  2.2251-308  2.2251-308  0.0000E+00  0.0000E+00  0.0000E+00  3.0000E+00  3.0000E+00
  4.9756E-01  4.4936E-01  8.7358E-01  9.8851E-01  3.2724E-01  2.2251-308  2.2251-308  0.0000E+00  0.0000E+00  0.0000E+00  3.0000E+00  3.0000E+00
  4.9854E-01  4.3587E-01  9.0416E-01  9.6111E-01  3.1357E-01  2.2251-308  2.2251-308  0.0000E+00  0.0000E+00  0.0000E+00  3.0000E+00  3.0000E+00
  4.9951E-01  4.2300E-01  9.3391E-01  9.3525E-01  3.0068E-01  2.2251-308  2.2251-308  0.0000E+00  0.0000E+00  0.0000E+00  3.0000E+00  3.0000E+00
  5.0049E-01  4.1114E-01  9.6283E-01  9.1174E-01  2.8880E-01  2.2251-308  2.2251-308  0.0000E+00  0.0000E+00  0.0000E+00  3.0000E+00  3.0000E+00
  5.0146E-01  4.0034E-01  9.8844E-01  8.9046E-01  2.7825E-01  2.2251-308  2.2251-308  0.0000E+00  0.0000E+00  0.0000E+00  3.0000E+00  3.0000E+00
  5.0244E-01  3.9142E-01  1.0121E+00  8.7291E-01  2.6911E-01  2.2251-308  2.2251-308  0.0000E+00  0.0000E+00  0.0000E+00  3.0000E+00  3.0000E+00
  5.0342E-01  3.9219E-01  1.0096E+00  8.7410E-01  2.6970E-01  2.2251-308  2.2251-308  0.0000E+00  0.0000E+00  0.0000E+00  3.0000E+00  3.0000E+00
  5.0439E-01  3.9569E-01  1.0010E+00  8.8023E-01  2.7336E-01  2.2251-308  2.2251-308  0.0000E+00  0.0000E+00  0.0000E+00  3.0000E+00  3.0000E+00
  5.0537E-01  4.0438E-01  9.7931E-01  8.9569E-01  2.8234E-01  2.2251-308  2.2251-308  0.0000E+00  0.0000E+00  0.0000E+00  3.0000E+00  3.0000E+00
  5.0635E-01  4.1452E-01  9.5462E-01  9.1602E-01  2.9254E-01  2.2251-308  2.2251-308  0.0000E+00  0.0000E+00  0.0000E+00  3.0000E+00  3.0000E+00
  5.0732E-01  4.2354E-01  9.3406E-01  9.3484E-01  3.0119E-01  2.2251-308  2.2251-308  0.0000E+00  0.0000E+00  0.0000E+00  3.0000E+00  3.0000E+00
  5.0830E-01  4.3044E-01  9.1806E-01  9.4944E-01  3.0739E-01  2.2251-308  2.2251-308  0.0000E+00  0.0000E+00  0.0000E+00  3.0000E+00  3.0000E+00
  5.0928E-01  4.2998E-01  9.1921E-01  9.4847E-01  3.0674E-01  2.2251-308  2.2251-308  0.0000E+00  0.0000E+00  0.0000E+00  3.0000E+00  3.0000E+00
  5.1025E-01  4.2869E-01  9.2194E-01  9.4563E-01  3.0543E-01  2.2251-308  2.2251-308  0.0000E+00  0.0000E+00  0.0000E+00  3.0000E+00  3.0000E+00
  5.1123E-01  4.2643E-01  9.2772E-01  9.4100E-01  3.0307E-01  2.2251-308  2.2251-308  0.0000E+00  0.0000E+00  0.0000E+00  3.0000E+00  3.0000E+00
  5.1221E-01  4.2453E-01  9.3257E-01  9.3751E-01  3.0119E-01  2.2251-308  2.2251-308  0.0000E+00  0.0000E+00  0.0000E+00  3.0000E+00  3.0000E+00
  5.1318E-01  4.2448E-01  9.3169E-01  9.3796E-01  3.0148E-01  2.2251-308  2.2251-308  0.0000E+00  0.0000E+00  0.0000E+00  3.0000E+00  3.0000E+00
  5.1416E-01  4.2452E-01  9.2989E-01  9.3853E-01  3.0199E-01  2.2251-308  2.2251-308  0.0000E+00  0.0000E+00  0.0000E+00  3.0000E+00  3.0000E+00
  5.1514E-01  4.2478E-01  9.2918E-01  9.3976E-01  3.0255E-01  2.2251-308  2.2251-308  0.0000E+00  0.0000E+00  0.0000E+00  3.0000E+00  3.0000E+00
  5.1611E-01  4.2573E-01  9.2834E-01  9.4131E-01  3.0314E-01  2.2251-308  2.2251-308  0.0000E+00  0.0000E+00  0.0000E+00  3.0000E+00  3.0000E+00
  5.1709E-01  4.2714E-01  9.2878E-01  9.4158E-01  3.0294E-01  2.2251-308  2.2251-308  0.0000E+00  0.0000E+00  0.0000E+00  3.0000E+00  3.0000E+00
  5.1807E-01  4.2881E-01  9.2894E-01  9.4165E-01  3.0265E-01  2.2251-308  2.2251-308  0.0000E+00  0.0000E+00  0.0000E+00  3.0000E+00  3.0000E+00
  5.1904E-01  4.2978E-01  9.2805E-01  9.4176E-01  3.0267E-01  2.2251-308  2.2251-308  0.0000E+00  0.0000E+00  0.0000E+00  3.0000E+00  3.0000E+00
  5.2002E-01  4.2943E-01  9.2775E-01  9.4190E-01  3.0283E-01  2.2251-308  2.2251-308  0.0000E+00  0.0000E+00  0.0000E+00  3.0000E+00  3.0000E+00
  5.2100E-01  4.2611E-01  9.2698E-01  9.4095E-01  3.0314E-01  2.2251-308  2.2251-308  0.0000E+00  0.0000E+00  0.0000E+00  3.0000E+00  3.0000E+00
  5.2197E-01  4.1029E-01  9.2646E-01  9.3461E-01  3.0341E-01  2.2251-308  2.2251-308  0.0000E+00  0.0000E+00  0.0000E+00  3.0000E+00  3.0000E+00
  5.2295E-01  3.5875E-01  9.2782E-01  9.1250E-01  3.0326E-01  2.2251-308  2.2251-308  0.0000E+00  0.0000E+00  0.0000E+00  3.0000E+00  3.0000E+00
  5.2393E-01  2.9225E-01  9.3161E-01  8.8437E-01  3.0302E-01  2.2251-308  2.2251-308  0.0000E+00  0.0000E+00  0.0000E+00  3.0000E+00  3.0000E+00
  5.2490E-01  2.5856E-01  9.2762E-01  8.6966E-01  3.0335E-01  2.2251-308  2.2251-308  0.0000E+00  0.0000E+00  0.0000E+00  3.0000E+00  3.0000E+00
  5.2588E-01  2.5698E-01  9.2692E-01  8.6716E-01  3.0270E-01  2.2251-308  2.2251-308  0.0000E+00  0.0000E+00  0.0000E+00  3.0000E+00  3.0000E+00
  5.2686E-01  2.5710E-01  9.2630E-01  8.6657E-01  3.0250E-01  2.2251-308  2.2251-308  0.0000E+00  0.0000E+00  0.0000E+00  3.0000E+00  3.0000E+00
  5.2783E-01  2.5829E-01  9.2545E-01  8.6667E-01  3.0243E-01  2.2251-308  2.2251-308  0.0000E+00  0.0000E+00  0.0000E+00  3.0000E+00  3.0000E+00
  5.2881E-01  2.6211E-01  9.2687E-01  8.6978E-01  3.0291E-01  2.2251-308  2.2251-308  0.0000E+00  0.0000E+00  0.0000E+00  3.0000E+00  3.0000E+00
  5.2979E-01  2.6610E-01  9.3029E-01  8.7548E-01  3.0417E-01  2.2251-308  2.2251-308  0.0000E+00  0.0000E+00  0.0000E+00  3.0000E+00  3.0000E+00
  5.3076E-01  2.6731E-01  9.3318E-01  8.7837E-01  3.0481E-01  2.2251-308  2.2251-308  0.0000E+00  0.0000E+00  0.0000E+00  3.0000E+00  3.0000E+00
  5.3174E-01  2.6738E-01  9.3342E-01  8.7842E-01  3.0476E-01  2.2251-308  2.2251-308  0.0000E+00  0.0000E+00  0.0000E+00  3.0000E+00  3.0000E+00
  5.3271E-01  2.6657E-01  9.2993E-01  8.7421E-01  3.0357E-01  2.2251-308  2.2251-308  0.0000E+00  0.0000E+00  0.0000E+00  3.0000E+00  3.0000E+00
  5.3369E-01  2.6537E-01  9.2486E-01  8.6904E-01  3.0220E-01  2.2251-308  2.2251-308  0.0000E+00  0.0000E+00  0.0000E+00  3.0000E+00  3.0000E+00
  5.3467E-01  2.6526E-01  9.2458E-01  8.6908E-01  3.0230E-01  2.2251-308  2.2251-308  0.0000E+00  0.0000E+00  0.0000E+00  3.0000E+00  3.0000E+00
  5.3564E-01  2.6561E-01  9.2710E-01  8.7164E-01  3.0302E-01  2.2251-308  2.2251-308  0.0000E+00  0.0000E+00  0.0000E+00  3.0000E+00  3.0000E+00
  5.3662E-01  2.6560E-01  9.2758E-01  8.7169E-01  3.0296E-01  2.2251-308  2.2251-308  0.0000E+00  0.0000E+00  0.0000E+00  3.0000E+00  3.0000E+00
  5.3760E-01  2.6536E-01  9.2614E-01  8.7002E-01  3.0249E-01  2.2251-308  2.2251-308  0.0000E+00  0.0000E+00  0.0000E+00  3.0000E+00  3.0000E+00
  5.3857E-01  2.6598E-01  9.2776E-01  8.7278E-01  3.0341E-01  2.2251-308  2.2251-308  0.0000E+00  0.0000E+00  0.0000E+00  3.0000E+00  3.0000E+00
  5.3955E-01  2.6824E-01  9.3835E-01  8.8566E-01  3.0711E-01  2.2251-308  2.2251-308  0.0000E+00  0.0000E+00  0.0000E+00  3.0000E+00  3.0000E+00
  5.4053E-01  2.6849E-01  9.4278E-01  8.8865E-01  3.0790E-01  2.2251-308  2.2251-308  0.0000E+00  0.0000E+00  0.0000E+00  3.0000E+00  3.0000E+00
  5.4150E-01  2.5951E-01  9.2165E-01  8.4563E-01  3.0243E-01  2.2251-308  2.2251-308  0.0000E+00  0.0000E+00  0.0000E+00  3.0000E+00  3.0000E+00
  5.4248E-01  2.3232E-01  8.2938E-01  7.0978E-01  2.8120E-01  2.2251-308  2.2251-308  0.0000E+00  0.0000E+00  0.0000E+00  3.0000E+00  3.0000E+00
  5.4346E-01  2.0207E-01  6.9199E-01  5.6136E-01  2.4953E-01  2.2251-308  2.2251-308  0.0000E+00  0.0000E+00  0.0000E+00  3.0000E+00  3.0000E+00
  5.4443E-01  1.7470E-01  5.2244E-01  4.3517E-01  2.1204E-01  2.2251-308  2.2251-308  0.0000E+00  0.0000E+00  0.0000E+00  3.0000E+00  3.0000E+00
  5.4541E-01  1.5365E-01  3.4631E-01  3.4780E-01  1.7275E-01  2.2251-308  2.2251-308  0.0000E+00  0.0000E+00  0.0000E+00  3.0000E+00  3.0000E+00
  5.4639E-01  1.3925E-01  1.8823E-01  2.9471E-01  1.3716E-01  2.2251-308  2.2251-308  0.0000E+00  0.0000E+00  0.0000E+00  3.0000E+00  3.0000E+00
  5.4736E-01  1.3066E-01  7.5699E-02  2.6673E-01  1.1280E-01  2.2251-308  2.2251-308  0.0000E+00  0.0000E+00  0.0000E+00  3.0000E+00  3.0000E+00
  5.4834E-01  1.2667E-01  2.0937E-02  2.5477E-01  1.0277E-01  2.2251-308  2.2251-308  0.0000E+00  0.0000E+00  0.0000E+00  3.0000E+00  3.0000E+00
  5.4932E-01  1.2536E-01  3.8761E-03  2.5103E-01  1.0045E-01  2.2251-308  2.2251-308  0.0000E+00  0.0000E+00  0.0000E+00  3.0000E+00  3.0000E+00
  5.5029E-01  1.2504E-01  6.7344E-04  2.5012E-01  1.0005E-01  2.2251-308  2.2251-308  0.0000E+00  0.0000E+00  0.0000E+00  3.0000E+00  3.0000E+00
  5.5176E-01  1.2500E-01  4.5094E-05  2.5002E-01  1.0001E-01  2.2251-308  2.2251-308  0.0000E+00  0.0000E+00  0.0000E+00  3.0000E+00  3.0000E+00
  5.5371E-01  1.2500E-01  1.3797E-05  2.5001E-01  1.0000E-01  2.2251-308  2.2251-308  0.0000E+00  0.0000E+00  0.0000E+00  3.0000E+00  3.0000E+00
  5.5664E-01  1.2500E-01  3.8774E-06  2.5000E-01  1.0000E-01  2.2251-308  2.2251-308  0.0000E+00  0.0000E+00  0.0000E+00  3.0000E+00  3.0000E+00
  5.6055E-01  1.2500E-01  1.0025E-06  2.5000E-01  1.0000E-01  2.2251-308  2.2251-308  0.0000E+00  0.0000E+00  0.0000E+00  3.0000E+00  3.0000E+00
  5.6641E-01  1.2500E-01  2.7900E-06  2.5000E-01  1.0000E-01  2.2251-308  2.2251-308  0.0000E+00  0.0000E+00  0.0000E+00  3.0000E+00  3.0000E+00
  5.7422E-01  1.2500E-01  2.6900E-06  2.5000E-01  1.0000E-01  2.2251-308  2.2251-308  0.0000E+00  0.0000E+00  0.0000E+00  3.0000E+00  3.0000E+00
  5.8594E-01  1.2500E-01  2.2027E-07  2.5000E-01  1.0000E-01  2.2251-308  2.2251-308  0.0000E+00  0.0000E+00  0.0000E+00  3.0000E+00  3.0000E+00
  6.0938E-01  1.2500E-01  1.8576E-07  2.5000E-01  1.0000E-01  2.2251-308  2.2251-308  0.0000E+00  0.0000E+00  0.0000E+00  3.0000E+00  3.0000E+00
  6.5625E-01  1.2500E-01  9.5752E-09  2.5000E-01  1.0000E-01  2.2251-308  2.2251-308  0.0000E+00  0.0000E+00  0.0000E+00  3.0000E+00  3.0000E+00
  7.1875E-01  1.2500E-01  3.8036E-10  2.5000E-01  1.0000E-01  2.2251-308  2.2251-308  0.0000E+00  0.0000E+00  0.0000E+00  3.0000E+00  3.0000E+00
  7.8125E-01  1.2500E-01  1.7234E-11  2.5000E-01  1.0000E-01  2.2251-308  2.2251-308  0.0000E+00  0.0000E+00  0.0000E+00  3.0000E+00  3.0000E+00
  8.4375E-01  1.2500E-01  2.3048E-13  2.5000E-01  1.0000E-01  2.2251-308  2.2251-308  0.0000E+00  0.0000E+00  0.0000E+00  3.0000E+00  3.0000E+00
